{
	"commentStamp" : "",
	"super" : "Object",
	"category" : "GitLabCI-Core",
	"classinstvars" : [ ],
	"pools" : [ ],
	"classvars" : [ ],
	"instvars" : [
		"smalltalkImages"
	],
	"name" : "GitLabCIConfiguration",
	"type" : "normal"
}